country,category,data
AL,AL,0.0
AL,AT,0.0
AL,BA,0.0
AL,BE,0.0
AL,BG,0.0
AL,BY,0.0
AL,CH,0.0
AL,CZ,0.0
AL,DE,0.0
AL,DK,0.0
AL,EE,0.0
AL,ES,0.0
AL,FI,0.0
AL,FR,0.0
AL,GB,0.0
AL,GR,1183.351
AL,HR,0.0
AL,HU,0.0
AL,IE,0.0
AL,IT,0.0
AL,LT,0.0
AL,LV,0.0
AL,ME,-734.525
AL,MK,0.0
AL,MT,0.0
AL,NL,0.0
AL,NO,0.0
AL,PL,0.0
AL,PT,0.0
AL,RO,0.0
AL,RS,0.0
AL,RU,0.0
AL,RU_KGD,0.0
AL,SE,0.0
AL,SI,0.0
AL,SK,0.0
AL,TR,0.0
AL,UA,0.0
AL,XK,473.96
AT,AL,0.0
AT,AT,0.0
AT,BA,0.0
AT,BE,0.0
AT,BG,0.0
AT,BY,0.0
AT,CH,-3895.841
AT,CZ,12535.134
AT,DE,9261.95025
AT,DK,0.0
AT,EE,0.0
AT,ES,0.0
AT,FI,0.0
AT,FR,0.0
AT,GB,0.0
AT,GR,0.0
AT,HR,0.0
AT,HU,-2819.63225
AT,IE,0.0
AT,IT,-1487.424
AT,LT,0.0
AT,LV,0.0
AT,ME,0.0
AT,MK,0.0
AT,MT,0.0
AT,NL,0.0
AT,NO,0.0
AT,PL,0.0
AT,PT,0.0
AT,RO,0.0
AT,RS,0.0
AT,RU,0.0
AT,RU_KGD,0.0
AT,SE,0.0
AT,SI,-3901.89225
AT,SK,0.0
AT,TR,0.0
AT,UA,0.0
AT,XK,0.0
BA,AL,0.0
BA,AT,0.0
BA,BA,0.0
BA,BE,0.0
BA,BG,0.0
BA,BY,0.0
BA,CH,0.0
BA,CZ,0.0
BA,DE,0.0
BA,DK,0.0
BA,EE,0.0
BA,ES,0.0
BA,FI,0.0
BA,FR,0.0
BA,GB,0.0
BA,GR,0.0
BA,HR,-2226.157
BA,HU,0.0
BA,IE,0.0
BA,IT,0.0
BA,LT,0.0
BA,LV,0.0
BA,ME,-1385.41
BA,MK,0.0
BA,MT,0.0
BA,NL,0.0
BA,NO,0.0
BA,PL,0.0
BA,PT,0.0
BA,RO,0.0
BA,RS,600.9110000000001
BA,RU,0.0
BA,RU_KGD,0.0
BA,SE,0.0
BA,SI,0.0
BA,SK,0.0
BA,TR,0.0
BA,UA,0.0
BA,XK,0.0
BE,AL,0.0
BE,AT,0.0
BE,BA,0.0
BE,BE,0.0
BE,BG,0.0
BE,BY,0.0
BE,CH,0.0
BE,CZ,0.0
BE,DE,1391.0685
BE,DK,0.0
BE,EE,0.0
BE,ES,0.0
BE,FI,0.0
BE,FR,-9847.217
BE,GB,-780.8177499999999
BE,GR,0.0
BE,HR,0.0
BE,HU,0.0
BE,IE,0.0
BE,IT,0.0
BE,LT,0.0
BE,LV,0.0
BE,ME,0.0
BE,MK,0.0
BE,MT,0.0
BE,NL,3628.593
BE,NO,0.0
BE,PL,0.0
BE,PT,0.0
BE,RO,0.0
BE,RS,0.0
BE,RU,0.0
BE,RU_KGD,0.0
BE,SE,0.0
BE,SI,0.0
BE,SK,0.0
BE,TR,0.0
BE,UA,0.0
BE,XK,0.0
BG,AL,0.0
BG,AT,0.0
BG,BA,0.0
BG,BE,0.0
BG,BG,0.0
BG,BY,0.0
BG,CH,0.0
BG,CZ,0.0
BG,DE,0.0
BG,DK,0.0
BG,EE,0.0
BG,ES,0.0
BG,FI,0.0
BG,FR,0.0
BG,GB,0.0
BG,GR,-1860.096
BG,HR,0.0
BG,HU,0.0
BG,IE,0.0
BG,IT,0.0
BG,LT,0.0
BG,LV,0.0
BG,ME,0.0
BG,MK,-2416.968
BG,MT,0.0
BG,NL,0.0
BG,NO,0.0
BG,PL,0.0
BG,PT,0.0
BG,RO,-2469.844
BG,RS,-3164.561
BG,RU,0.0
BG,RU_KGD,0.0
BG,SE,0.0
BG,SI,0.0
BG,SK,0.0
BG,TR,-2171.978
BG,UA,0.0
BG,XK,0.0
BY,AL,0.0
BY,AT,0.0
BY,BA,0.0
BY,BE,0.0
BY,BG,0.0
BY,BY,0.0
BY,CH,0.0
BY,CZ,0.0
BY,DE,0.0
BY,DK,0.0
BY,EE,0.0
BY,ES,0.0
BY,FI,0.0
BY,FR,0.0
BY,GB,0.0
BY,GR,0.0
BY,HR,0.0
BY,HU,0.0
BY,IE,0.0
BY,IT,0.0
BY,LT,-1474.944
BY,LV,0.0
BY,ME,0.0
BY,MK,0.0
BY,MT,0.0
BY,NL,0.0
BY,NO,0.0
BY,PL,0.0
BY,PT,0.0
BY,RO,0.0
BY,RS,0.0
BY,RU,0.0
BY,RU_KGD,0.0
BY,SE,0.0
BY,SI,0.0
BY,SK,0.0
BY,TR,0.0
BY,UA,0.0
BY,XK,0.0
CH,AL,0.0
CH,AT,3895.841
CH,BA,0.0
CH,BE,0.0
CH,BG,0.0
CH,BY,0.0
CH,CH,0.0
CH,CZ,0.0
CH,DE,15384.523916666667
CH,DK,0.0
CH,EE,0.0
CH,ES,0.0
CH,FI,0.0
CH,FR,3799.616
CH,GB,0.0
CH,GR,0.0
CH,HR,0.0
CH,HU,0.0
CH,IE,0.0
CH,IT,-19234.961
CH,LT,0.0
CH,LV,0.0
CH,ME,0.0
CH,MK,0.0
CH,MT,0.0
CH,NL,0.0
CH,NO,0.0
CH,PL,0.0
CH,PT,0.0
CH,RO,0.0
CH,RS,0.0
CH,RU,0.0
CH,RU_KGD,0.0
CH,SE,0.0
CH,SI,0.0
CH,SK,0.0
CH,TR,0.0
CH,UA,0.0
CH,XK,0.0
CZ,AL,0.0
CZ,AT,-12535.134
CZ,BA,0.0
CZ,BE,0.0
CZ,BG,0.0
CZ,BY,0.0
CZ,CH,0.0
CZ,CZ,0.0
CZ,DE,73.375
CZ,DK,0.0
CZ,EE,0.0
CZ,ES,0.0
CZ,FI,0.0
CZ,FR,0.0
CZ,GB,0.0
CZ,GR,0.0
CZ,HR,0.0
CZ,HU,0.0
CZ,IE,0.0
CZ,IT,0.0
CZ,LT,0.0
CZ,LV,0.0
CZ,ME,0.0
CZ,MK,0.0
CZ,MT,0.0
CZ,NL,0.0
CZ,NO,0.0
CZ,PL,8720.164
CZ,PT,0.0
CZ,RO,0.0
CZ,RS,0.0
CZ,RU,0.0
CZ,RU_KGD,0.0
CZ,SE,0.0
CZ,SI,0.0
CZ,SK,-10501.288
CZ,TR,0.0
CZ,UA,0.0
CZ,XK,0.0
DE,AL,0.0
DE,AT,-9261.95025
DE,BA,0.0
DE,BE,-1391.0685
DE,BG,0.0
DE,BY,0.0
DE,CH,-15384.523916666667
DE,CZ,-73.375
DE,DE,0.0
DE,DK,6529.56575
DE,EE,0.0
DE,ES,0.0
DE,FI,0.0
DE,FR,-5439.049
DE,GB,0.0
DE,GR,0.0
DE,HR,0.0
DE,HU,0.0
DE,IE,0.0
DE,IT,0.0
DE,LT,0.0
DE,LV,0.0
DE,ME,0.0
DE,MK,0.0
DE,MT,0.0
DE,NL,1893.1845
DE,NO,3782.57025
DE,PL,-8085.974
DE,PT,0.0
DE,RO,0.0
DE,RS,0.0
DE,RU,0.0
DE,RU_KGD,0.0
DE,SE,3072.72
DE,SI,0.0
DE,SK,0.0
DE,TR,0.0
DE,UA,0.0
DE,XK,0.0
DK,AL,0.0
DK,AT,0.0
DK,BA,0.0
DK,BE,0.0
DK,BG,0.0
DK,BY,0.0
DK,CH,0.0
DK,CZ,0.0
DK,DE,-6529.56575
DK,DK,0.0
DK,EE,0.0
DK,ES,0.0
DK,FI,0.0
DK,FR,0.0
DK,GB,0.0
DK,GR,0.0
DK,HR,0.0
DK,HU,0.0
DK,IE,0.0
DK,IT,0.0
DK,LT,0.0
DK,LV,0.0
DK,ME,0.0
DK,MK,0.0
DK,MT,0.0
DK,NL,-1528.857
DK,NO,2142.67
DK,PL,0.0
DK,PT,0.0
DK,RO,0.0
DK,RS,0.0
DK,RU,0.0
DK,RU_KGD,0.0
DK,SE,7509.032
DK,SI,0.0
DK,SK,0.0
DK,TR,0.0
DK,UA,0.0
DK,XK,0.0
EE,AL,0.0
EE,AT,0.0
EE,BA,0.0
EE,BE,0.0
EE,BG,0.0
EE,BY,0.0
EE,CH,0.0
EE,CZ,0.0
EE,DE,0.0
EE,DK,0.0
EE,EE,0.0
EE,ES,0.0
EE,FI,6798.138
EE,FR,0.0
EE,GB,0.0
EE,GR,0.0
EE,HR,0.0
EE,HU,0.0
EE,IE,0.0
EE,IT,0.0
EE,LT,0.0
EE,LV,-3749.283
EE,ME,0.0
EE,MK,0.0
EE,MT,0.0
EE,NL,0.0
EE,NO,0.0
EE,PL,0.0
EE,PT,0.0
EE,RO,0.0
EE,RS,0.0
EE,RU,-2071.16
EE,RU_KGD,0.0
EE,SE,0.0
EE,SI,0.0
EE,SK,0.0
EE,TR,0.0
EE,UA,0.0
EE,XK,0.0
ES,AL,0.0
ES,AT,0.0
ES,BA,0.0
ES,BE,0.0
ES,BG,0.0
ES,BY,0.0
ES,CH,0.0
ES,CZ,0.0
ES,DE,0.0
ES,DK,0.0
ES,EE,0.0
ES,ES,0.0
ES,FI,0.0
ES,FR,-8887.083
ES,GB,0.0
ES,GR,0.0
ES,HR,0.0
ES,HU,0.0
ES,IE,0.0
ES,IT,0.0
ES,LT,0.0
ES,LV,0.0
ES,ME,0.0
ES,MK,0.0
ES,MT,0.0
ES,NL,0.0
ES,NO,0.0
ES,PL,0.0
ES,PT,-9274.843
ES,RO,0.0
ES,RS,0.0
ES,RU,0.0
ES,RU_KGD,0.0
ES,SE,0.0
ES,SI,0.0
ES,SK,0.0
ES,TR,0.0
ES,UA,0.0
ES,XK,0.0
FI,AL,0.0
FI,AT,0.0
FI,BA,0.0
FI,BE,0.0
FI,BG,0.0
FI,BY,0.0
FI,CH,0.0
FI,CZ,0.0
FI,DE,0.0
FI,DK,0.0
FI,EE,-6798.138
FI,ES,0.0
FI,FI,0.0
FI,FR,0.0
FI,GB,0.0
FI,GR,0.0
FI,HR,0.0
FI,HU,0.0
FI,IE,0.0
FI,IT,0.0
FI,LT,0.0
FI,LV,0.0
FI,ME,0.0
FI,MK,0.0
FI,MT,0.0
FI,NL,0.0
FI,NO,421.161
FI,PL,0.0
FI,PT,0.0
FI,RO,0.0
FI,RS,0.0
FI,RU,3628.29
FI,RU_KGD,0.0
FI,SE,15052.359
FI,SI,0.0
FI,SK,0.0
FI,TR,0.0
FI,UA,0.0
FI,XK,0.0
FR,AL,0.0
FR,AT,0.0
FR,BA,0.0
FR,BE,9847.217
FR,BG,0.0
FR,BY,0.0
FR,CH,-3799.616
FR,CZ,0.0
FR,DE,5439.049
FR,DK,0.0
FR,EE,0.0
FR,ES,8887.083
FR,FI,0.0
FR,FR,0.0
FR,GB,9296.939
FR,GR,0.0
FR,HR,0.0
FR,HU,0.0
FR,IE,0.0
FR,IT,-13513.664
FR,LT,0.0
FR,LV,0.0
FR,ME,0.0
FR,MK,0.0
FR,MT,0.0
FR,NL,0.0
FR,NO,0.0
FR,PL,0.0
FR,PT,0.0
FR,RO,0.0
FR,RS,0.0
FR,RU,0.0
FR,RU_KGD,0.0
FR,SE,0.0
FR,SI,0.0
FR,SK,0.0
FR,TR,0.0
FR,UA,0.0
FR,XK,0.0
GB,AL,0.0
GB,AT,0.0
GB,BA,0.0
GB,BE,780.8177499999999
GB,BG,0.0
GB,BY,0.0
GB,CH,0.0
GB,CZ,0.0
GB,DE,0.0
GB,DK,0.0
GB,EE,0.0
GB,ES,0.0
GB,FI,0.0
GB,FR,-9296.939
GB,GB,0.0
GB,GR,0.0
GB,HR,0.0
GB,HU,0.0
GB,IE,240.071
GB,IT,0.0
GB,LT,0.0
GB,LV,0.0
GB,ME,0.0
GB,MK,0.0
GB,MT,0.0
GB,NL,1563.093
GB,NO,2860.379
GB,PL,0.0
GB,PT,0.0
GB,RO,0.0
GB,RS,0.0
GB,RU,0.0
GB,RU_KGD,0.0
GB,SE,0.0
GB,SI,0.0
GB,SK,0.0
GB,TR,0.0
GB,UA,0.0
GB,XK,0.0
GR,AL,-1183.351
GR,AT,0.0
GR,BA,0.0
GR,BE,0.0
GR,BG,1860.096
GR,BY,0.0
GR,CH,0.0
GR,CZ,0.0
GR,DE,0.0
GR,DK,0.0
GR,EE,0.0
GR,ES,0.0
GR,FI,0.0
GR,FR,0.0
GR,GB,0.0
GR,GR,0.0
GR,HR,0.0
GR,HU,0.0
GR,IE,0.0
GR,IT,-678.85
GR,LT,0.0
GR,LV,0.0
GR,ME,0.0
GR,MK,497.078
GR,MT,0.0
GR,NL,0.0
GR,NO,0.0
GR,PL,0.0
GR,PT,0.0
GR,RO,0.0
GR,RS,0.0
GR,RU,0.0
GR,RU_KGD,0.0
GR,SE,0.0
GR,SI,0.0
GR,SK,0.0
GR,TR,2928.635
GR,UA,0.0
GR,XK,0.0
HR,AL,0.0
HR,AT,0.0
HR,BA,2226.157
HR,BE,0.0
HR,BG,0.0
HR,BY,0.0
HR,CH,0.0
HR,CZ,0.0
HR,DE,0.0
HR,DK,0.0
HR,EE,0.0
HR,ES,0.0
HR,FI,0.0
HR,FR,0.0
HR,GB,0.0
HR,GR,0.0
HR,HR,0.0
HR,HU,4561.215
HR,IE,0.0
HR,IT,0.0
HR,LT,0.0
HR,LV,0.0
HR,ME,0.0
HR,MK,0.0
HR,MT,0.0
HR,NL,0.0
HR,NO,0.0
HR,PL,0.0
HR,PT,0.0
HR,RO,0.0
HR,RS,923.124
HR,RU,0.0
HR,RU_KGD,0.0
HR,SE,0.0
HR,SI,-2424.848
HR,SK,0.0
HR,TR,0.0
HR,UA,0.0
HR,XK,0.0
HU,AL,0.0
HU,AT,2819.63225
HU,BA,0.0
HU,BE,0.0
HU,BG,0.0
HU,BY,0.0
HU,CH,0.0
HU,CZ,0.0
HU,DE,0.0
HU,DK,0.0
HU,EE,0.0
HU,ES,0.0
HU,FI,0.0
HU,FR,0.0
HU,GB,0.0
HU,GR,0.0
HU,HR,-4561.215
HU,HU,0.0
HU,IE,0.0
HU,IT,0.0
HU,LT,0.0
HU,LV,0.0
HU,ME,0.0
HU,MK,0.0
HU,MT,0.0
HU,NL,0.0
HU,NO,0.0
HU,PL,0.0
HU,PT,0.0
HU,RO,-952.928
HU,RS,-126.403
HU,RU,0.0
HU,RU_KGD,0.0
HU,SE,0.0
HU,SI,-1110.0135
HU,SK,13182.372
HU,TR,0.0
HU,UA,2975.603
HU,XK,0.0
IE,AL,0.0
IE,AT,0.0
IE,BA,0.0
IE,BE,0.0
IE,BG,0.0
IE,BY,0.0
IE,CH,0.0
IE,CZ,0.0
IE,DE,0.0
IE,DK,0.0
IE,EE,0.0
IE,ES,0.0
IE,FI,0.0
IE,FR,0.0
IE,GB,-240.071
IE,GR,0.0
IE,HR,0.0
IE,HU,0.0
IE,IE,0.0
IE,IT,0.0
IE,LT,0.0
IE,LV,0.0
IE,ME,0.0
IE,MK,0.0
IE,MT,0.0
IE,NL,0.0
IE,NO,0.0
IE,PL,0.0
IE,PT,0.0
IE,RO,0.0
IE,RS,0.0
IE,RU,0.0
IE,RU_KGD,0.0
IE,SE,0.0
IE,SI,0.0
IE,SK,0.0
IE,TR,0.0
IE,UA,0.0
IE,XK,0.0
IT,AL,0.0
IT,AT,1487.424
IT,BA,0.0
IT,BE,0.0
IT,BG,0.0
IT,BY,0.0
IT,CH,19234.961
IT,CZ,0.0
IT,DE,0.0
IT,DK,0.0
IT,EE,0.0
IT,ES,0.0
IT,FI,0.0
IT,FR,13513.664
IT,GB,0.0
IT,GR,678.85
IT,HR,0.0
IT,HU,0.0
IT,IE,0.0
IT,IT,0.0
IT,LT,0.0
IT,LV,0.0
IT,ME,2825.607
IT,MK,0.0
IT,MT,-636.062
IT,NL,0.0
IT,NO,0.0
IT,PL,0.0
IT,PT,0.0
IT,RO,0.0
IT,RS,0.0
IT,RU,0.0
IT,RU_KGD,0.0
IT,SE,0.0
IT,SI,6036.285
IT,SK,0.0
IT,TR,0.0
IT,UA,0.0
IT,XK,0.0
LT,AL,0.0
LT,AT,0.0
LT,BA,0.0
LT,BE,0.0
LT,BG,0.0
LT,BY,1474.944
LT,CH,0.0
LT,CZ,0.0
LT,DE,0.0
LT,DK,0.0
LT,EE,0.0
LT,ES,0.0
LT,FI,0.0
LT,FR,0.0
LT,GB,0.0
LT,GR,0.0
LT,HR,0.0
LT,HU,0.0
LT,IE,0.0
LT,IT,0.0
LT,LT,0.0
LT,LV,2300.53
LT,ME,0.0
LT,MK,0.0
LT,MT,0.0
LT,NL,0.0
LT,NO,0.0
LT,PL,-788.3629999999999
LT,PT,0.0
LT,RO,0.0
LT,RS,0.0
LT,RU,0.0
LT,RU_KGD,785.235
LT,SE,5034.224
LT,SI,0.0
LT,SK,0.0
LT,TR,0.0
LT,UA,0.0
LT,XK,0.0
LU,AL,0.0
LU,AT,0.0
LU,BA,0.0
LU,BE,671.45875
LU,BG,0.0
LU,BY,0.0
LU,CH,0.0
LU,CZ,0.0
LU,DE,3181.21025
LU,DK,0.0
LU,EE,0.0
LU,ES,0.0
LU,FI,0.0
LU,FR,0.0
LU,GB,0.0
LU,GR,0.0
LU,HR,0.0
LU,HU,0.0
LU,IE,0.0
LU,IT,0.0
LU,LT,0.0
LU,LV,0.0
LU,ME,0.0
LU,MK,0.0
LU,MT,0.0
LU,NL,0.0
LU,NO,0.0
LU,PL,0.0
LU,PT,0.0
LU,RO,0.0
LU,RS,0.0
LU,RU,0.0
LU,RU_KGD,0.0
LU,SE,0.0
LU,SI,0.0
LU,SK,0.0
LU,TR,0.0
LU,UA,0.0
LU,XK,0.0
LV,AL,0.0
LV,AT,0.0
LV,BA,0.0
LV,BE,0.0
LV,BG,0.0
LV,BY,0.0
LV,CH,0.0
LV,CZ,0.0
LV,DE,0.0
LV,DK,0.0
LV,EE,3749.283
LV,ES,0.0
LV,FI,0.0
LV,FR,0.0
LV,GB,0.0
LV,GR,0.0
LV,HR,0.0
LV,HU,0.0
LV,IE,0.0
LV,IT,0.0
LV,LT,-2300.53
LV,LV,0.0
LV,ME,0.0
LV,MK,0.0
LV,MT,0.0
LV,NL,0.0
LV,NO,0.0
LV,PL,0.0
LV,PT,0.0
LV,RO,0.0
LV,RS,0.0
LV,RU,830.629
LV,RU_KGD,0.0
LV,SE,0.0
LV,SI,0.0
LV,SK,0.0
LV,TR,0.0
LV,UA,0.0
LV,XK,0.0
ME,AL,734.525
ME,AT,0.0
ME,BA,1385.41
ME,BE,0.0
ME,BG,0.0
ME,BY,0.0
ME,CH,0.0
ME,CZ,0.0
ME,DE,0.0
ME,DK,0.0
ME,EE,0.0
ME,ES,0.0
ME,FI,0.0
ME,FR,0.0
ME,GB,0.0
ME,GR,0.0
ME,HR,0.0
ME,HU,0.0
ME,IE,0.0
ME,IT,-2825.607
ME,LT,0.0
ME,LV,0.0
ME,ME,0.0
ME,MK,0.0
ME,MT,0.0
ME,NL,0.0
ME,NO,0.0
ME,PL,0.0
ME,PT,0.0
ME,RO,0.0
ME,RS,-1196.758
ME,RU,0.0
ME,RU_KGD,0.0
ME,SE,0.0
ME,SI,0.0
ME,SK,0.0
ME,TR,0.0
ME,UA,0.0
ME,XK,877.216
MK,AL,0.0
MK,AT,0.0
MK,BA,0.0
MK,BE,0.0
MK,BG,2416.968
MK,BY,0.0
MK,CH,0.0
MK,CZ,0.0
MK,DE,0.0
MK,DK,0.0
MK,EE,0.0
MK,ES,0.0
MK,FI,0.0
MK,FR,0.0
MK,GB,0.0
MK,GR,-497.078
MK,HR,0.0
MK,HU,0.0
MK,IE,0.0
MK,IT,0.0
MK,LT,0.0
MK,LV,0.0
MK,ME,0.0
MK,MK,0.0
MK,MT,0.0
MK,NL,0.0
MK,NO,0.0
MK,PL,0.0
MK,PT,0.0
MK,RO,0.0
MK,RS,80.714
MK,RU,0.0
MK,RU_KGD,0.0
MK,SE,0.0
MK,SI,0.0
MK,SK,0.0
MK,TR,0.0
MK,UA,0.0
MK,XK,-318.036
MT,AL,0.0
MT,AT,0.0
MT,BA,0.0
MT,BE,0.0
MT,BG,0.0
MT,BY,0.0
MT,CH,0.0
MT,CZ,0.0
MT,DE,0.0
MT,DK,0.0
MT,EE,0.0
MT,ES,0.0
MT,FI,0.0
MT,FR,0.0
MT,GB,0.0
MT,GR,0.0
MT,HR,0.0
MT,HU,0.0
MT,IE,0.0
MT,IT,636.062
MT,LT,0.0
MT,LV,0.0
MT,ME,0.0
MT,MK,0.0
MT,MT,0.0
MT,NL,0.0
MT,NO,0.0
MT,PL,0.0
MT,PT,0.0
MT,RO,0.0
MT,RS,0.0
MT,RU,0.0
MT,RU_KGD,0.0
MT,SE,0.0
MT,SI,0.0
MT,SK,0.0
MT,TR,0.0
MT,UA,0.0
MT,XK,0.0
NL,AL,0.0
NL,AT,0.0
NL,BA,0.0
NL,BE,-3628.593
NL,BG,0.0
NL,BY,0.0
NL,CH,0.0
NL,CZ,0.0
NL,DE,-1893.0705
NL,DK,1528.857
NL,EE,0.0
NL,ES,0.0
NL,FI,0.0
NL,FR,0.0
NL,GB,-1563.093
NL,GR,0.0
NL,HR,0.0
NL,HU,0.0
NL,IE,0.0
NL,IT,0.0
NL,LT,0.0
NL,LV,0.0
NL,ME,0.0
NL,MK,0.0
NL,MT,0.0
NL,NL,0.0
NL,NO,1388.685
NL,PL,0.0
NL,PT,0.0
NL,RO,0.0
NL,RS,0.0
NL,RU,0.0
NL,RU_KGD,0.0
NL,SE,0.0
NL,SI,0.0
NL,SK,0.0
NL,TR,0.0
NL,UA,0.0
NL,XK,0.0
NO,AL,0.0
NO,AT,0.0
NO,BA,0.0
NO,BE,0.0
NO,BG,0.0
NO,BY,0.0
NO,CH,0.0
NO,CZ,0.0
NO,DE,-3782.57025
NO,DK,-2142.67
NO,EE,0.0
NO,ES,0.0
NO,FI,-421.161
NO,FR,0.0
NO,GB,-2860.379
NO,GR,0.0
NO,HR,0.0
NO,HU,0.0
NO,IE,0.0
NO,IT,0.0
NO,LT,0.0
NO,LV,0.0
NO,ME,0.0
NO,MK,0.0
NO,MT,0.0
NO,NL,-1388.685
NO,NO,0.0
NO,PL,0.0
NO,PT,0.0
NO,RO,0.0
NO,RS,0.0
NO,RU,0.0
NO,RU_KGD,0.0
NO,SE,-1446.895
NO,SI,0.0
NO,SK,0.0
NO,TR,0.0
NO,UA,0.0
NO,XK,0.0
PL,AL,0.0
PL,AT,0.0
PL,BA,0.0
PL,BE,0.0
PL,BG,0.0
PL,BY,0.0
PL,CH,0.0
PL,CZ,-8720.164
PL,DE,8085.974
PL,DK,0.0
PL,EE,0.0
PL,ES,0.0
PL,FI,0.0
PL,FR,0.0
PL,GB,0.0
PL,GR,0.0
PL,HR,0.0
PL,HU,0.0
PL,IE,0.0
PL,IT,0.0
PL,LT,788.3629999999999
PL,LV,0.0
PL,ME,0.0
PL,MK,0.0
PL,MT,0.0
PL,NL,0.0
PL,NO,0.0
PL,PL,0.0
PL,PT,0.0
PL,RO,0.0
PL,RS,0.0
PL,RU,0.0
PL,RU_KGD,0.0
PL,SE,3788.942
PL,SI,0.0
PL,SK,-5993.683
PL,TR,0.0
PL,UA,1129.8609999999999
PL,XK,0.0
PT,AL,0.0
PT,AT,0.0
PT,BA,0.0
PT,BE,0.0
PT,BG,0.0
PT,BY,0.0
PT,CH,0.0
PT,CZ,0.0
PT,DE,0.0
PT,DK,0.0
PT,EE,0.0
PT,ES,9274.843
PT,FI,0.0
PT,FR,0.0
PT,GB,0.0
PT,GR,0.0
PT,HR,0.0
PT,HU,0.0
PT,IE,0.0
PT,IT,0.0
PT,LT,0.0
PT,LV,0.0
PT,ME,0.0
PT,MK,0.0
PT,MT,0.0
PT,NL,0.0
PT,NO,0.0
PT,PL,0.0
PT,PT,0.0
PT,RO,0.0
PT,RS,0.0
PT,RU,0.0
PT,RU_KGD,0.0
PT,SE,0.0
PT,SI,0.0
PT,SK,0.0
PT,TR,0.0
PT,UA,0.0
PT,XK,0.0
RO,AL,0.0
RO,AT,0.0
RO,BA,0.0
RO,BE,0.0
RO,BG,2469.844
RO,BY,0.0
RO,CH,0.0
RO,CZ,0.0
RO,DE,0.0
RO,DK,0.0
RO,EE,0.0
RO,ES,0.0
RO,FI,0.0
RO,FR,0.0
RO,GB,0.0
RO,GR,0.0
RO,HR,0.0
RO,HU,952.928
RO,IE,0.0
RO,IT,0.0
RO,LT,0.0
RO,LV,0.0
RO,ME,0.0
RO,MK,0.0
RO,MT,0.0
RO,NL,0.0
RO,NO,0.0
RO,PL,0.0
RO,PT,0.0
RO,RO,0.0
RO,RS,-1721.271
RO,RU,0.0
RO,RU_KGD,0.0
RO,SE,0.0
RO,SI,0.0
RO,SK,0.0
RO,TR,0.0
RO,UA,1383.475
RO,XK,0.0
RS,AL,0.0
RS,AT,0.0
RS,BA,-600.9110000000001
RS,BE,0.0
RS,BG,3164.561
RS,BY,0.0
RS,CH,0.0
RS,CZ,0.0
RS,DE,0.0
RS,DK,0.0
RS,EE,0.0
RS,ES,0.0
RS,FI,0.0
RS,FR,0.0
RS,GB,0.0
RS,GR,0.0
RS,HR,-923.124
RS,HU,126.403
RS,IE,0.0
RS,IT,0.0
RS,LT,0.0
RS,LV,0.0
RS,ME,1196.758
RS,MK,-80.714
RS,MT,0.0
RS,NL,0.0
RS,NO,0.0
RS,PL,0.0
RS,PT,0.0
RS,RO,1721.271
RS,RS,0.0
RS,RU,0.0
RS,RU_KGD,0.0
RS,SE,0.0
RS,SI,0.0
RS,SK,0.0
RS,TR,0.0
RS,UA,0.0
RS,XK,-1266.735
RU,AL,0.0
RU,AT,0.0
RU,BA,0.0
RU,BE,0.0
RU,BG,0.0
RU,BY,0.0
RU,CH,0.0
RU,CZ,0.0
RU,DE,0.0
RU,DK,0.0
RU,EE,2071.16
RU,ES,0.0
RU,FI,-3628.29
RU,FR,0.0
RU,GB,0.0
RU,GR,0.0
RU,HR,0.0
RU,HU,0.0
RU,IE,0.0
RU,IT,0.0
RU,LT,0.0
RU,LV,-830.629
RU,ME,0.0
RU,MK,0.0
RU,MT,0.0
RU,NL,0.0
RU,NO,0.0
RU,PL,0.0
RU,PT,0.0
RU,RO,0.0
RU,RS,0.0
RU,RU,0.0
RU,RU_KGD,0.0
RU,SE,0.0
RU,SI,0.0
RU,SK,0.0
RU,TR,0.0
RU,UA,0.0
RU,XK,0.0
RU_KGD,AL,0.0
RU_KGD,AT,0.0
RU_KGD,BA,0.0
RU_KGD,BE,0.0
RU_KGD,BG,0.0
RU_KGD,BY,0.0
RU_KGD,CH,0.0
RU_KGD,CZ,0.0
RU_KGD,DE,0.0
RU_KGD,DK,0.0
RU_KGD,EE,0.0
RU_KGD,ES,0.0
RU_KGD,FI,0.0
RU_KGD,FR,0.0
RU_KGD,GB,0.0
RU_KGD,GR,0.0
RU_KGD,HR,0.0
RU_KGD,HU,0.0
RU_KGD,IE,0.0
RU_KGD,IT,0.0
RU_KGD,LT,-785.235
RU_KGD,LV,0.0
RU_KGD,ME,0.0
RU_KGD,MK,0.0
RU_KGD,MT,0.0
RU_KGD,NL,0.0
RU_KGD,NO,0.0
RU_KGD,PL,0.0
RU_KGD,PT,0.0
RU_KGD,RO,0.0
RU_KGD,RS,0.0
RU_KGD,RU,0.0
RU_KGD,RU_KGD,0.0
RU_KGD,SE,0.0
RU_KGD,SI,0.0
RU_KGD,SK,0.0
RU_KGD,TR,0.0
RU_KGD,UA,0.0
RU_KGD,XK,0.0
SE,AL,0.0
SE,AT,0.0
SE,BA,0.0
SE,BE,0.0
SE,BG,0.0
SE,BY,0.0
SE,CH,0.0
SE,CZ,0.0
SE,DE,-3072.72
SE,DK,-7509.032
SE,EE,0.0
SE,ES,0.0
SE,FI,-15052.359
SE,FR,0.0
SE,GB,0.0
SE,GR,0.0
SE,HR,0.0
SE,HU,0.0
SE,IE,0.0
SE,IT,0.0
SE,LT,-5034.224
SE,LV,0.0
SE,ME,0.0
SE,MK,0.0
SE,MT,0.0
SE,NL,0.0
SE,NO,1446.895
SE,PL,-3788.942
SE,PT,0.0
SE,RO,0.0
SE,RS,0.0
SE,RU,0.0
SE,RU_KGD,0.0
SE,SE,0.0
SE,SI,0.0
SE,SK,0.0
SE,TR,0.0
SE,UA,0.0
SE,XK,0.0
SI,AL,0.0
SI,AT,3901.89225
SI,BA,0.0
SI,BE,0.0
SI,BG,0.0
SI,BY,0.0
SI,CH,0.0
SI,CZ,0.0
SI,DE,0.0
SI,DK,0.0
SI,EE,0.0
SI,ES,0.0
SI,FI,0.0
SI,FR,0.0
SI,GB,0.0
SI,GR,0.0
SI,HR,2424.848
SI,HU,1110.0135
SI,IE,0.0
SI,IT,-6036.285
SI,LT,0.0
SI,LV,0.0
SI,ME,0.0
SI,MK,0.0
SI,MT,0.0
SI,NL,0.0
SI,NO,0.0
SI,PL,0.0
SI,PT,0.0
SI,RO,0.0
SI,RS,0.0
SI,RU,0.0
SI,RU_KGD,0.0
SI,SE,0.0
SI,SI,0.0
SI,SK,0.0
SI,TR,0.0
SI,UA,0.0
SI,XK,0.0
SK,AL,0.0
SK,AT,0.0
SK,BA,0.0
SK,BE,0.0
SK,BG,0.0
SK,BY,0.0
SK,CH,0.0
SK,CZ,10501.288
SK,DE,0.0
SK,DK,0.0
SK,EE,0.0
SK,ES,0.0
SK,FI,0.0
SK,FR,0.0
SK,GB,0.0
SK,GR,0.0
SK,HR,0.0
SK,HU,-13182.372
SK,IE,0.0
SK,IT,0.0
SK,LT,0.0
SK,LV,0.0
SK,ME,0.0
SK,MK,0.0
SK,MT,0.0
SK,NL,0.0
SK,NO,0.0
SK,PL,5993.683
SK,PT,0.0
SK,RO,0.0
SK,RS,0.0
SK,RU,0.0
SK,RU_KGD,0.0
SK,SE,0.0
SK,SI,0.0
SK,SK,0.0
SK,TR,0.0
SK,UA,-1724.497
SK,XK,0.0
TR,AL,0.0
TR,AT,0.0
TR,BA,0.0
TR,BE,0.0
TR,BG,2171.978
TR,BY,0.0
TR,CH,0.0
TR,CZ,0.0
TR,DE,0.0
TR,DK,0.0
TR,EE,0.0
TR,ES,0.0
TR,FI,0.0
TR,FR,0.0
TR,GB,0.0
TR,GR,-2928.635
TR,HR,0.0
TR,HU,0.0
TR,IE,0.0
TR,IT,0.0
TR,LT,0.0
TR,LV,0.0
TR,ME,0.0
TR,MK,0.0
TR,MT,0.0
TR,NL,0.0
TR,NO,0.0
TR,PL,0.0
TR,PT,0.0
TR,RO,0.0
TR,RS,0.0
TR,RU,0.0
TR,RU_KGD,0.0
TR,SE,0.0
TR,SI,0.0
TR,SK,0.0
TR,TR,0.0
TR,UA,0.0
TR,XK,0.0
UA,AL,0.0
UA,AT,0.0
UA,BA,0.0
UA,BE,0.0
UA,BG,0.0
UA,BY,0.0
UA,CH,0.0
UA,CZ,0.0
UA,DE,0.0
UA,DK,0.0
UA,EE,0.0
UA,ES,0.0
UA,FI,0.0
UA,FR,0.0
UA,GB,0.0
UA,GR,0.0
UA,HR,0.0
UA,HU,-2975.603
UA,IE,0.0
UA,IT,0.0
UA,LT,0.0
UA,LV,0.0
UA,ME,0.0
UA,MK,0.0
UA,MT,0.0
UA,NL,0.0
UA,NO,0.0
UA,PL,-1129.8609999999999
UA,PT,0.0
UA,RO,-1383.475
UA,RS,0.0
UA,RU,0.0
UA,RU_KGD,0.0
UA,SE,0.0
UA,SI,0.0
UA,SK,1724.497
UA,TR,0.0
UA,UA,0.0
UA,XK,0.0
XK,AL,-473.96
XK,AT,0.0
XK,BA,0.0
XK,BE,0.0
XK,BG,0.0
XK,BY,0.0
XK,CH,0.0
XK,CZ,0.0
XK,DE,0.0
XK,DK,0.0
XK,EE,0.0
XK,ES,0.0
XK,FI,0.0
XK,FR,0.0
XK,GB,0.0
XK,GR,0.0
XK,HR,0.0
XK,HU,0.0
XK,IE,0.0
XK,IT,0.0
XK,LT,0.0
XK,LV,0.0
XK,ME,-877.216
XK,MK,318.036
XK,MT,0.0
XK,NL,0.0
XK,NO,0.0
XK,PL,0.0
XK,PT,0.0
XK,RO,0.0
XK,RS,1266.735
XK,RU,0.0
XK,RU_KGD,0.0
XK,SE,0.0
XK,SI,0.0
XK,SK,0.0
XK,TR,0.0
XK,UA,0.0
XK,XK,0.0
