country,category,data
AL,Actual Load,1462.337
AT,Actual Load,61338.59975
BA,Actual Load,5394.213
BE,Actual Load,81730.54725
BG,Actual Load,37836.19
CH,Actual Load,63392.054
CZ,Actual Load,64428.217
DE,Actual Load,483946.405
DK,Actual Load,34332.937
EE,Actual Load,8173.129
ES,Actual Load,235916.56833333333
FI,Actual Load,79227.551
FR,Actual Load,443106.453
GR,Actual Load,48745.678
HR,Actual Load,18099.58
HU,Actual Load,43421.29
IE,Actual Load,9072.6215
IT,Actual Load,286264.094
LT,Actual Load,12167.891
LU,Actual Load,4460.962666666666
LV,Actual Load,6805.468
ME,Actual Load,2870.739
MK,Actual Load,6254.241
NL,Actual Load,100209.991
NO,Actual Load,132723.134
PL,Actual Load,172405.466
PT,Actual Load,50376.903
RO,Actual Load,56227.74566666667
RS,Actual Load,34084.277
SE,Actual Load,132103.641
SI,Actual Load,13368.393
SK,Actual Load,27189.2
UA,Actual Load,26129.357
XK,Actual Load,6325.506
